[gd_resource type="Theme" load_steps=6 format=3 uid="uid://cqnfy31b0xw4s"]

[sub_resource type="StyleBoxFlat" id="StyleBoxFlat_v6w0m"]

[sub_resource type="StyleBoxFlat" id="StyleBoxFlat_68d6u"]
bg_color = Color(0, 0, 0, 0)
border_color = Color(1, 1, 1, 1)
expand_margin_left = 5.0
expand_margin_top = 5.0
expand_margin_right = 5.0
expand_margin_bottom = 5.0

[sub_resource type="StyleBoxFlat" id="StyleBoxFlat_pbwy6"]
bg_color = Color(0, 0, 0, 1)
border_width_left = 1
border_width_top = 1
border_width_right = 1
border_width_bottom = 1
border_color = Color(1, 1, 1, 1)
expand_margin_left = 5.0
expand_margin_top = 5.0
expand_margin_right = 5.0
expand_margin_bottom = 5.0

[sub_resource type="StyleBoxFlat" id="StyleBoxFlat_u7ltw"]
bg_color = Color(0, 0, 0, 1)
border_color = Color(1, 1, 1, 1)

[sub_resource type="StyleBoxFlat" id="StyleBoxFlat_16584"]
bg_color = Color(0, 0, 0, 1)
border_width_left = 1
border_width_top = 1
border_width_right = 1
border_width_bottom = 1
border_color = Color(1, 1, 1, 1)
expand_margin_left = 5.0
expand_margin_top = 5.0
expand_margin_right = 5.0
expand_margin_bottom = 5.0
shadow_color = Color(1, 1, 1, 0.713726)
shadow_size = 5

[resource]
default_font_size = 30
Button/styles/disabled = SubResource("StyleBoxFlat_v6w0m")
Button/styles/focus = SubResource("StyleBoxFlat_68d6u")
Button/styles/hover = SubResource("StyleBoxFlat_pbwy6")
Button/styles/normal = SubResource("StyleBoxFlat_u7ltw")
Button/styles/pressed = SubResource("StyleBoxFlat_16584")
